OIA Averaging
…
acidification_profiles_station_obs_reconstructed %>%
  filter(station == "ALOHA" & depth <= 250 |
           station == "BATS" & depth <= 500) %>% 
  group_by(station, variable, driver) %>% 
  summarise(delta_interval = mean(delta_interval)) %>% 
  ungroup() %>% 
  pivot_wider(names_from = driver,
              values_from = delta_interval) %>% 
  mutate(relative = 100 * reconstructed / observed)

# A tibble: 30 × 5
   station variable           observed reconstructed relative
   <chr>   <chr>                 <dbl>         <dbl>    <dbl>
 1 ALOHA   H_free               0.586         0.585      99.8
 2 ALOHA   H_freestar           0.575         0.585     102. 
 3 ALOHA   OmegaAragonite      -0.191        -0.234     123. 
 4 ALOHA   OmegaAragonitestar  -0.200        -0.234     117. 
 5 ALOHA   PO4                  0.0138       NA          NA  
 6 ALOHA   SIR                 -0.0184       -0.0202    110. 
 7 ALOHA   SIRstar             -0.0192       -0.0202    106. 
 8 ALOHA   Si                  -0.0544       NA          NA  
 9 ALOHA   pH                  -0.0387       -0.0402    104. 
10 ALOHA   pHstar              -0.0390       -0.0402    103. 
# … with 20 more rows
…
