OIA Averaging
…
cwc <-
  cwc %>%
  filter(SPECIES %in% c("Lophelia pertusa",
                        "Madrepora oculata",
                        "Goniocorella dumosa",
                        "Oculina varicosa",
                        "Enallopsammia profunda",
                        "Solenosmilia variabilis"))

cwc %>% 
  distinct(lon, lat)

# A tibble: 2,100 × 2
     lon    lat
   <dbl>  <dbl>
 1  285.  18.3 
 2  325.   9.02
 3  281.  27.1 
 4  281.  27.1 
 5  315. -25.4 
 6  316. -24.9 
 7  320. -22.5 
 8  320. -22.5 
 9  300.  13.1 
10  287.  12.2 
# ℹ 2,090 more rows

cwc %>% 
  count(SPECIES, DEPTH_MAX) %>% 
  arrange(DEPTH_MAX)

# A tibble: 796 × 3
   SPECIES                 DEPTH_MAX     n
   <chr>                       <dbl> <int>
 1 Enallopsammia profunda          0     1
 2 Goniocorella dumosa             0    11
 3 Lophelia pertusa                0   747
 4 Madrepora oculata               0    87
 5 Solenosmilia variabilis         0    61
 6 Lophelia pertusa               20     1
 7 Lophelia pertusa               30     1
 8 Oculina varicosa               49     1
 9 Lophelia pertusa               55     1
10 Madrepora oculata              55     1
# ℹ 786 more rows
…
rm(cwc_coordinates,
   cwc_depth)

cwc <-
  m_grid_horizontal(cwc)

cwc %>% 
  distinct(lon, lat)

# A tibble: 603 × 2
     lon   lat
   <dbl> <dbl>
 1  20.5  70.5
 2  20.5  69.5
 3  21.5  70.5
 4  21.5  71.5
 5  22.5  70.5
 6  23.5 -35.5
 7  24.5  71.5
 8  26.5  36.5
 9  27.5  36.5
10  27.5  71.5
# ℹ 593 more rows

cwc %>% 
  count(DEPTH_MAX)

# A tibble: 549 × 2
   DEPTH_MAX     n
       <dbl> <int>
 1         0   891
 2        20     1
 3        30     1
 4        49     1
 5        55     2
 6        60     1
 7        61     1
 8        79     1
 9        80     8
10        81     3
# ℹ 539 more rows
…
buffer_addition_depth_layer_trend %>%
  arrange(year) %>% 
  group_by(biome, depth, variable) %>%
  mutate(delta_sensitvity = 100 * (sensitivity - first(sensitivity)) /
              first(sensitivity)) %>%
  ungroup() %>% 
  arrange(depth, biome, variable, -year)

# A tibble: 288 × 8
   depth  biome  year variable sensitivity sensitivity_sd  pCO2 delta_sensitvity
   <fct>  <chr> <dbl> <chr>          <dbl>          <dbl> <dbl>            <dbl>
 1 A: 0 … Glob…  2014 H_free       0.0352       0.00319    396.            50.4 
 2 A: 0 … Glob…  2004 H_free       0.0327       0.00214    375.            39.9 
 3 A: 0 … Glob…  1994 H_free       0.0306       0.00196    357.            30.9 
 4 A: 0 … Glob…  1800 H_free       0.0234       0.00238    282.             0   
 5 A: 0 … Glob…  2014 OmegaAr…    -0.00940      0.0000861  396.            -3.09
 6 A: 0 … Glob…  2004 OmegaAr…    -0.00947      0.0000578  375.            -2.44
 7 A: 0 … Glob…  1994 OmegaAr…    -0.00952      0.0000526  357.            -1.88
 8 A: 0 … Glob…  1800 OmegaAr…    -0.00970      0.0000635  282.             0   
 9 A: 0 … Glob…  2014 pH          -0.00203      0.0000597  396.            14.0 
10 A: 0 … Glob…  2004 pH          -0.00198      0.0000413  375.            11.4 
# ℹ 278 more rows
…
biome_co2_speciation <-
  bind_rows(
    biome_co2_speciation_abs %>% mutate(estimate = "absolute"),
    biome_co2_speciation_delta %>% mutate(estimate = "sensitivity")
  ) %>%
  select(biome, depth, tref, CO2:estimate)

biome_co2_speciation %>% 
  filter(estimate == "sensitivity") %>% 
  group_by(biome, depth, tref) %>% 
  summarise(delta_tco2 = (CO2 + HCO3 + CO3)*1e6) %>% 
  ungroup()

# A tibble: 80 × 4
   biome             depth           tref  delta_tco2
   <chr>             <fct>           <fct>      <dbl>
 1 "North\nAtlantic" A: 0 - 100 m    1800        1.00
 2 "North\nAtlantic" A: 0 - 100 m    1994        1.00
 3 "North\nAtlantic" A: 0 - 100 m    2004        1.00
 4 "North\nAtlantic" A: 0 - 100 m    2014        1.00
 5 "North\nAtlantic" B: 100 - 500 m  1800        1.00
 6 "North\nAtlantic" B: 100 - 500 m  1994        1.00
 7 "North\nAtlantic" B: 100 - 500 m  2004        1.00
 8 "North\nAtlantic" B: 100 - 500 m  2014        1.00
 9 "North\nAtlantic" C: 500 - 1500 m 1800        1.00
10 "North\nAtlantic" C: 500 - 1500 m 1994        1.00
# ℹ 70 more rows
…
i_var <- "OmegaAragonite"

all_labels_breaks <- labels_breaks(i_var)
i_breaks        <- unlist(all_labels_breaks[1])
i_legend_title  <- unlist(all_labels_breaks[3])

all_labels_breaks <- labels_breaks_absolute(i_var)
i_breaks_abs        <- unlist(all_labels_breaks[1])
i_legend_title_abs  <- unlist(all_labels_breaks[3])

cwc %>% 
  distinct(lon, lat, DEPTH_MAX)

# A tibble: 999 × 3
     lon   lat DEPTH_MAX
   <dbl> <dbl>     <dbl>
 1  20.5  70.5       185
 2  20.5  70.5       231
 3  20.5  70.5       198
 4  21.5  70.5       230
 5  21.5  70.5       120
 6  21.5  70.5       300
 7  22.5  70.5       260
 8  22.5  70.5       200
 9  22.5  70.5       300
10  22.5  70.5       283
# ℹ 989 more rows
…
acidification_profiles <-
  bind_rows(acidification_profiles_global,
            acidification_profiles_regional)
  
rm(acidification_profiles_regional,
   acidification_profiles_global)

acidification_profiles <- acidification_profiles %>%
  mutate(tref = as.factor(tref))

acidification_profiles %>% 
  pivot_longer(-c(tref:depth))

# A tibble: 38,016 × 5
   tref  basin  depth name                   value
   <fct> <chr>  <dbl> <chr>                  <dbl>
 1 1800  Global     0 tco2-mean           1971.   
 2 1800  Global     0 sal-mean              34.8  
 3 1800  Global     0 phosphate-mean         0.474
 4 1800  Global     0 silicate-mean          6.19 
 5 1800  Global     0 pH-mean                8.19 
 6 1800  Global     0 CO3-mean             230.   
 7 1800  Global     0 OmegaAragonite-mean    3.61 
 8 1800  Global     0 OmegaCalcite-mean      5.53 
 9 1800  Global     0 SIR-mean               0.342
10 1800  Global     0 H_free-mean            5.11 
# ℹ 38,006 more rows
…
acidification_profiles_biomes <-
  bind_rows(acidification_profiles_biomes_global,
            acidification_profiles_biomes_regional)
  
rm(acidification_profiles_biomes_regional,
   acidification_profiles_biomes_global)

acidification_profiles_biomes <- acidification_profiles_biomes %>%
  mutate(tref = as.factor(tref))

acidification_profiles_biomes %>% 
  pivot_longer(-c(tref:depth))

# A tibble: 37,632 × 5
   tref  biome  depth name                   value
   <fct> <chr>  <dbl> <chr>                  <dbl>
 1 1800  Global     0 tco2-mean           1971.   
 2 1800  Global     0 sal-mean              34.8  
 3 1800  Global     0 phosphate-mean         0.474
 4 1800  Global     0 silicate-mean          6.19 
 5 1800  Global     0 pH-mean                8.19 
 6 1800  Global     0 CO3-mean             230.   
 7 1800  Global     0 OmegaAragonite-mean    3.61 
 8 1800  Global     0 OmegaCalcite-mean      5.53 
 9 1800  Global     0 SIR-mean               0.342
10 1800  Global     0 H_free-mean            5.11 
# ℹ 37,622 more rows
…
